{
    "hits": [
        {
            "name": "Counter-Strike",
            "description": "Play the worlds number 1 online action game. Engage in an incredibly realistic brand of terrorist warfare in this wildly popular team-based game. Ally with teammates to complete strategic missions. Take out enemy sites. Rescue hostages. Your role affects your teams success. Your teams success affects your role.",
            "id": "10",
            "price": "9.99 $",
            "image": "http://steam.meilisearch.dev/steam/apps/10/header.jpg?t=1447887426",
            "releaseDate": "Nov 1 2000",
            "recommendationCount": 68991,
            "platforms": [
                "MacOS",
                "Linux",
                "Windows"
            ],
            "players": [
                "Multiplayer"
            ],
            "genres": [
                "Action"
            ],
            "misc": []
        },
        {
            "name": "Team Fortress Classic",
            "description": "One of the most popular online action games of all time Team Fortress Classic features over nine character classes -- from Medic to Spy to Demolition Man -- enlisted in a unique style of online team warfare. Each character class possesses unique weapons items and abilities as teams compete online in a variety of game play modes.",
            "id": "20",
            "price": "4.99 $",
            "image": "http://steam.meilisearch.dev/steam/apps/20/header.jpg?t=1447350811",
            "releaseDate": "Apr 1 1999",
            "recommendationCount": 2439,
            "platforms": [
                "MacOS",
                "Linux",
                "Windows"
            ],
            "players": [
                "Multiplayer"
            ],
            "genres": [
                "Action"
            ],
            "misc": []
        },
        {
            "name": "Day of Defeat",
            "description": "Enlist in an intense brand of Axis vs. Allied teamplay set in the WWII European Theatre of Operations. Players assume the role of light/assault/heavy infantry sniper or machine-gunner class each with a unique arsenal of historical weaponry at their disposal. Missions are based on key historical operations. And as war rages players must work together with their squad to accomplish a variety of mission-specific objectives.",
            "id": "30",
            "price": "4.99 $",
            "image": "http://steam.meilisearch.dev/steam/apps/30/header.jpg?t=1447350812",
            "releaseDate": "May 1 2003",
            "recommendationCount": 2319,
            "platforms": [
                "MacOS",
                "Linux",
                "Windows"
            ],
            "players": [
                "Multiplayer"
            ],
            "genres": [
                "Action"
            ],
            "misc": []
        },
        {
            "name": "Deathmatch Classic",
            "description": "Enjoy fast-paced multiplayer gaming with Deathmatch Classic (a.k.a. DMC). Valves tribute to the work of id software DMC invites players to grab their rocket launchers and put their reflexes to the test in a collection of futuristic settings.",
            "id": "40",
            "price": "4.99 $",
            "image": "http://steam.meilisearch.dev/steam/apps/40/header.jpg?t=1447350812",
            "releaseDate": "Jun 1 2001",
            "recommendationCount": 888,
            "platforms": [
                "MacOS",
                "Linux",
                "Windows"
            ],
            "players": [
                "Multiplayer"
            ],
            "genres": [
                "Action"
            ],
            "misc": []
        },
        {
            "name": "Half-Life: Opposing Force",
            "description": "Return to the Black Mesa Research Facility as one of the military specialists assigned to eliminate Gordon Freeman. Experience an entirely new episode of single player action. Meet fierce alien opponents and experiment with new weaponry. Named Game of the Year by the Academy of Interactive Arts and Sciences.",
            "id": "50",
            "price": "4.99 $",
            "image": "http://steam.meilisearch.dev/steam/apps/50/header.jpg?t=1447350813",
            "releaseDate": "Nov 1 1999",
            "recommendationCount": 2934,
            "platforms": [
                "MacOS",
                "Linux",
                "Windows"
            ],
            "players": [
                "Single player",
                "Multiplayer"
            ],
            "genres": [
                "Action"
            ],
            "misc": []
        },
        {
            "name": "Ricochet",
            "description": "A futuristic action game that challenges your agility as well as your aim Ricochet features one-on-one and team matches played in a variety of futuristic battle arenas.",
            "id": "60",
            "price": "4.99 $",
            "image": "http://steam.meilisearch.dev/steam/apps/60/header.jpg?t=1453942008",
            "releaseDate": "Nov 1 2000",
            "recommendationCount": 1965,
            "platforms": [
                "MacOS",
                "Linux",
                "Windows"
            ],
            "players": [
                "Multiplayer"
            ],
            "genres": [
                "Action"
            ],
            "misc": []
        },
        {
            "name": "Half-Life",
            "description": "Named Game of the Year by over 50 publications Valves debut title blends action and adventure with award-winning technology to create a frighteningly realistic world where players must think to survive. Also includes an exciting multiplayer mode that allows you to play against friends and enemies around the world.",
            "id": "70",
            "price": "9.99 $",
            "image": "http://steam.meilisearch.dev/steam/apps/70/header.jpg?t=1447890508",
            "releaseDate": "Nov 8 1998",
            "recommendationCount": 12486,
            "platforms": [
                "MacOS",
                "Linux",
                "Windows"
            ],
            "players": [
                "Single player",
                "Multiplayer"
            ],
            "genres": [
                "Action"
            ],
            "misc": []
        },
        {
            "name": "Counter-Strike: Condition Zero",
            "description": "With its extensive Tour of Duty campaign a near-limitless number of skirmish modes updates and new content for Counter-Strikes award-winning multiplayer game play plus over 12 bonus single player missions Counter-Strike: Condition Zero is a tremendous offering of single and multiplayer content.",
            "id": "80",
            "price": "9.99 $",
            "image": "http://steam.meilisearch.dev/steam/apps/80/header.jpg?t=1447889920",
            "releaseDate": "Mar 1 2004",
            "recommendationCount": 7067,
            "platforms": [
                "MacOS",
                "Linux",
                "Windows"
            ],
            "players": [
                "Single player",
                "Multiplayer"
            ],
            "genres": [
                "Action"
            ],
            "misc": []
        },
        {
            "name": "Half-Life: Blue Shift",
            "description": "Made by Gearbox Software and originally released in 2001 as an add-on to Half-Life Blue Shift is a return to the Black Mesa Research Facility in which you play as Barney Calhoun the security guard sidekick who helped Gordon out of so many sticky situations.",
            "id": "130",
            "price": "4.99 $",
            "image": "http://steam.meilisearch.dev/steam/apps/130/header.jpg?t=1447350816",
            "releaseDate": "Jun 1 2001",
            "recommendationCount": 2219,
            "platforms": [
                "MacOS",
                "Linux",
                "Windows"
            ],
            "players": [
                "Single player"
            ],
            "genres": [
                "Action"
            ],
            "misc": []
        },
        {
            "name": "Half-Life 2",
            "description": "1998. HALF-LIFE sends a shock through the game industry with its combination of pounding action and continuous immersive storytelling. Valves debut title wins more than 50 game-of-the-year awards on its way to being named Best PC Game Ever by PC Gamer and launches a franchise with more than eight million retail units sold worldwide.NOW. By taking the suspense challenge and visceral charge of the original and adding startling new realism and responsiveness Half-Life 2 opens the door to a world where the players presence affects everything around him from the physical environment to the behaviors even the emotions of both friends and enemies.The player again picks up the crowbar of research scientist Gordon Freeman who finds himself on an alien-infested Earth being picked to the bone its resources depleted its populace dwindling. Freeman is thrust into the unenviable role of rescuing the world from the wrong he unleashed back at Black Mesa. And a lot of people he cares about are counting on him.The intense real-time gameplay of Half-Life 2 is made possible only by Source? Valves new proprietary engine technology. Source provides major enhancements in:Characters: Advanced facial animation system delivers the most sophisticated in-game characters ever seen. With 40 distinct facial muscles human characters convey the full array of human emotion and respond to the player with fluidity and intelligence.Physics: From pebbles to water to 2-ton trucks respond as expected as they obey the laws of mass friction gravity and buoyancy.Graphics: Sources shader-based renderer like the one used at Pixar to create movies such as Toy Story? and Monsters Inc.? creates the most beautiful and realistic environments ever seen in a video game.AI: Neither friends nor enemies charge blindly into the fray. They can assess threats navigate tricky terrain and fashion weapons from whatever is at hand.",
            "id": "220",
            "price": "9.99 $",
            "image": "http://steam.meilisearch.dev/steam/apps/220/header.jpg?t=1456860366",
            "releaseDate": "Nov 16 2004",
            "recommendationCount": 35792,
            "platforms": [
                "MacOS",
                "Linux",
                "Windows"
            ],
            "players": [
                "Single player"
            ],
            "genres": [
                "Action"
            ],
            "misc": []
        }
    ],
    "query": "",
    "processingTimeMs": 0,
    "hitsPerPage": 10,
    "page": 1,
    "totalPages": 100,
    "totalHits": 1000,
    "facetDistribution": {
        "genres": {
            "Action": 5554,
            "Adventure": 4289,
            "Casual": 3510,
            "RPG": 2074,
            "Racing": 472,
            "Simulation": 2082,
            "Sports": 538,
            "Strategy": 2592
        },
        "misc": {
            "Early access": 1469,
            "Free to play": 659,
            "VR support": 237
        },
        "platforms": {
            "Linux": 2931,
            "MacOS": 4406,
            "Windows": 12544
        },
        "players": {
            "Coop": 1302,
            "MMO": 321,
            "Multiplayer": 3415,
            "Single player": 11522
        },
        "recommendationCount": {
            "0": 7764,
            "101": 26,
            "102": 17,
            "103": 12,
            "104": 18,
            "105": 27,
            "106": 14,
            "107": 12,
            "108": 13,
            "109": 20,
            "110": 21,
            "111": 18,
            "112": 22,
            "113": 15,
            "114": 21,
            "115": 19,
            "116": 12,
            "117": 11,
            "118": 17,
            "119": 7,
            "120": 16,
            "121": 15,
            "122": 11,
            "123": 14,
            "124": 22,
            "125": 16,
            "126": 23,
            "127": 13,
            "128": 14,
            "129": 13,
            "130": 14,
            "131": 14,
            "132": 17,
            "133": 14,
            "134": 16,
            "135": 10,
            "136": 12,
            "137": 14,
            "138": 13,
            "139": 10,
            "140": 16,
            "141": 15,
            "142": 14,
            "143": 13,
            "144": 11,
            "145": 11,
            "146": 12,
            "147": 13,
            "148": 8,
            "149": 15,
            "150": 13,
            "151": 16,
            "152": 13,
            "153": 9,
            "154": 12,
            "155": 5,
            "156": 8,
            "157": 9,
            "158": 13,
            "159": 11,
            "160": 7,
            "161": 11,
            "162": 12,
            "163": 12,
            "164": 12,
            "165": 10,
            "166": 17,
            "167": 11,
            "168": 11,
            "169": 8,
            "170": 6,
            "171": 14,
            "172": 5,
            "173": 8,
            "174": 6,
            "175": 8,
            "176": 7,
            "177": 9,
            "178": 11,
            "179": 6,
            "180": 11,
            "181": 12,
            "182": 6,
            "183": 11,
            "184": 8,
            "185": 10,
            "186": 7,
            "187": 10,
            "188": 5,
            "189": 7,
            "190": 10,
            "191": 7,
            "192": 7,
            "193": 9,
            "194": 7,
            "195": 11,
            "196": 6,
            "197": 9,
            "198": 7,
            "199": 8
        }
    },
    "facetStats": {
        "recommendationCount": {
            "min": 0.0,
            "max": 1427633.0
        }
    }
}

